…
## Usage Example

Make a population dataset that expands the common sample via weights.
Though the weights are not frequency weights, we treat it as such for
simplicity.

``` r
pop_wtd <- pop_cces %>% 
  mutate(weight_rounded = ceiling(weight_cumulative)) %>% 
  tidyr::uncount(weights = weight_rounded)

pop_wtd
#> # A tibble: 611,027 x 17
#>    ID     year case_id weight weight_cumulati… state cd     gender    educ
#>    <chr> <dbl> <chr>    <dbl>            <dbl> <chr> <chr> <dbl+l> <dbl+l>
#>  1 0000…  2007 605      0.379             1.24 New … NY-15 1 [Mal… 4 [Pos…
#>  2 0000…  2007 605      0.379             1.24 New … NY-15 1 [Mal… 4 [Pos…
#>  3 0000…  2007 612      0.995             3.26 Kans… KS-01 2 [Fem… 2 [Som…
#>  4 0000…  2007 612      0.995             3.26 Kans… KS-01 2 [Fem… 2 [Som…
#>  5 0000…  2007 612      0.995             3.26 Kans… KS-01 2 [Fem… 2 [Som…
#>  6 0000…  2007 612      0.995             3.26 Kans… KS-01 2 [Fem… 2 [Som…
#>  7 0000…  2007 627      0.379             1.24 Cali… CA-52 2 [Fem… 4 [Pos…
#>  8 0000…  2007 627      0.379             1.24 Cali… CA-52 2 [Fem… 4 [Pos…
#>  9 0000…  2007 674      0.379             1.24 Texas TX-14 2 [Fem… 2 [Som…
#> 10 0000…  2007 674      0.379             1.24 Texas TX-14 2 [Fem… 2 [Som…
#> # … with 611,017 more rows, and 8 more variables: race <int+lbl>,
#> #   age <int+lbl>, age_orig <dbl>, newsint <dbl+lbl>, pid3_leaner <dbl+lbl>,
#> #   ideo5 <dbl+lbl>, Y <dbl>, Z <int>
```
…
